{
    "data": {
        "locationCount": 1,
        "deliveryProfiles": {
            "pageInfo": {
                "hasNextPage": false,
                "__typename": "PageInfo"
            },
            "__typename": "DeliveryProfileConnection"
        },
        "order": {
            "id": "gid://shopify/Order/3755070980296",
            "localizationExtensions": {
                "edges": [],
                "__typename": "LocalizationExtensionConnection"
            },
            "attributionName": "Draft Orders",
            "resourceAlerts": [
                {
                    "actions": [],
                    "content": "在处理此订单的付款时，2 个商品可能已缺货： <a target=\"_blank\" href=\"https://ufand.myshopify.com/admin/products/6767540043976/variants/39952113402056\">短袖 - X / b</a> 以及 <a target=\"_blank\" href=\"https://ufand.myshopify.com/admin/products/6767540043976/variants/39952113500360\">短袖 - L / b</a>.  在您发货此订单之前，请确保这些商品有存货。",
                    "dismissibleHandle": "inventory_management_failure_74747790524616",
                    "severity": "WARNING",
                    "title": "2 个商品可能已缺货",
                    "classification": "BASE",
                    "__typename": "OrderResourceAlert"
                }
            ],
            "cancelledAt": null,
            "clientIp": null,
            "closed": false,
            "deletable": true,
            "expiringAuthorization": false,
            "displayFinancialStatus": "PENDING",
            "displayFulfillmentStatus": "UNFULFILLED",
            "edited": false,
            "edits": {
                "edges": [],
                "__typename": "OrderEditConnection"
            },
            "eligibleForReturnLabelPurchase": false,
            "email": "jojo@coco.com",
            "name": "#1001",
            "merchantCancellable": true,
            "merchantDuplicable": true,
            "paymentGatewayNames": [
                "manual"
            ],
            "processedAt": "2021-04-25T01:12:25Z",
            "receiptNumber": null,
            "refundable": false,
            "restockable": false,
            "returnable": false,
            "returnLabelsTemp": {
                "edges": [],
                "__typename": "DeliveryReturnLabelConnection"
            },
            "returnInformation": {
                "visibleOrderReturnLabels": [],
                "__typename": "OrderReturnInformation"
            },
            "returnStatus": "NO_RETURN",
            "statusPageUrl": "https://ufand.myshopify.com/56344969416/orders/e4b297ecc5f462011ef449752fe1dba5/authenticate?key=cf28f06f34c551a75c34bbe1b0eb9aad",
            "supportedActions": [
                {
                    "action": "EDIT",
                    "title": "编辑",
                    "disabled": false,
                    "disabledReason": null,
                    "disabledReasonCode": null,
                    "__typename": "OrderSupportedAction"
                },
                {
                    "action": "EDIT_SHIPPING_ADDRESS",
                    "title": "编辑收货地址",
                    "disabled": false,
                    "disabledReason": null,
                    "disabledReasonCode": null,
                    "__typename": "OrderSupportedAction"
                },
                {
                    "action": "REFUND_ARBITRARY_AMOUNT",
                    "title": "退款任意金额",
                    "disabled": false,
                    "disabledReason": null,
                    "disabledReasonCode": null,
                    "__typename": "OrderSupportedAction"
                }
            ],
            "test": false,
            "__typename": "Order"
        },
        "shop": {
            "id": "gid://shopify/Shop/56344969416",
            "paymentSettings": {
                "acceptedCardBrands": [],
                "__typename": "PaymentSettings"
            },
            "checkoutSettings": {
                "emailOrPhoneFieldMode": "EMAIL_OR_PHONE",
                "__typename": "CheckoutSettings"
            },
            "developmentShop": false,
            "__typename": "Shop"
        }
    },
    "extensions": {
        "cost": {
            "requestedQueryCost": 130,
            "actualQueryCost": 17,
            "throttleStatus": {
                "maximumAvailable": 5000,
                "currentlyAvailable": 5034,
                "restoreRate": 250
            }
        }
    }
}