{
    "media": null,
    "product": {
        "title": "风衣 ",
        "descriptionHtml": "风衣",
        "handle": "",
        "seo": {
            "title": "",
            "description": ""
        },
        "status": "DRAFT",
        "options": [
            "颜色"
        ],
        "variants": [
            {
                "inventoryQuantities": [
                    {
                        "availableQuantity": 8777,
                        "locationId": "gid://shopify/Location/62156964040"
                    }
                ],
                "imageId": null,
                "inventoryItem": {
                    "cost": null,
                    "tracked": true,
                    "harmonizedSystemCode": null,
                    "countryCodeOfOrigin": null,
                    "provinceCodeOfOrigin": null
                },
                "barcode": "",
                "fulfillmentServiceId": "gid://shopify/FulfillmentService/manual",
                "options": [
                    "red"
                ],
                "compareAtPrice": "999.00",
                "price": "888.00",
                "requiresShipping": true,
                "sku": "888999",
                "taxable": false,
                "taxCode": "",
                "weight": 0,
                "weightUnit": "KILOGRAMS",
                "inventoryPolicy": "DENY"
            },
            {
                "inventoryQuantities": [
                    {
                        "availableQuantity": 0,
                        "locationId": "gid://shopify/Location/62156964040"
                    }
                ],
                "imageId": null,
                "inventoryItem": {
                    "cost": null,
                    "tracked": true,
                    "harmonizedSystemCode": null,
                    "countryCodeOfOrigin": null,
                    "provinceCodeOfOrigin": null
                },
                "barcode": "",
                "fulfillmentServiceId": "gid://shopify/FulfillmentService/manual",
                "options": [
                    "black"
                ],
                "compareAtPrice": "999.00",
                "price": "888.00",
                "requiresShipping": true,
                "sku": "889000",
                "taxable": false,
                "taxCode": "",
                "weight": 0,
                "weightUnit": "KILOGRAMS",
                "inventoryPolicy": "DENY"
            }
        ],
        "images": [],
        "productType": "",
        "tags": [],
        "templateSuffix": "",
        "giftCardTemplateSuffix": "",
        "vendor": "",
        "giftCard": false,
        "collectionsToJoin": [],
        "workflow": "product-details-create",
        "metafields": []
    }
} 